EESchema Schematic File Version 2
LIBS:timer-rescue
LIBS:power
LIBS:device
LIBS:transistors
LIBS:conn
LIBS:linear
LIBS:regul
LIBS:74xx
LIBS:cmos4000
LIBS:adc-dac
LIBS:memory
LIBS:xilinx
LIBS:microcontrollers
LIBS:dsp
LIBS:microchip
LIBS:analog_switches
LIBS:motorola
LIBS:texas
LIBS:intel
LIBS:audio
LIBS:interface
LIBS:digital-audio
LIBS:philips
LIBS:display
LIBS:cypress
LIBS:siliconi
LIBS:opto
LIBS:atmel
LIBS:contrib
LIBS:valves
LIBS:my-microcontrollers
LIBS:my-power-supplies
LIBS:my-relays
LIBS:my-displays
LIBS:timer-cache
EELAYER 25 0
EELAYER END
$Descr A3 16535 11693
encoding utf-8
Sheet 1 1
Title ""
Date ""
Rev ""
Comp ""
Comment1 ""
Comment2 ""
Comment3 ""
Comment4 ""
$EndDescr
$Comp
L arduino_nano U2
U 1 1 57A74C25
P 5550 3850
F 0 "U2" H 5850 2800 70  0000 C CNN
F 1 "arduino_nano" H 5850 3050 70  0000 C CNN
F 2 "arduino:arduino_mini" H 5850 3800 60  0001 C CNN
F 3 "" H 5550 3850 60  0000 C CNN
	1    5550 3850
	1    0    0    -1  
$EndComp
$Comp
L CONN_01X02 P1
U 1 1 57A74DD9
P 3350 7850
F 0 "P1" H 3350 8000 50  0000 C CNN
F 1 "Transformer 7.5V 5VA" V 3450 7850 50  0000 C CNN
F 2 "Connect:bornier2" H 3350 7850 50  0001 C CNN
F 3 "" H 3350 7850 50  0000 C CNN
	1    3350 7850
	0    1    1    0   
$EndComp
$Comp
L C C1
U 1 1 57A7547F
P 3800 5100
F 0 "C1" H 3825 5200 50  0000 L CNN
F 1 "100nF" H 3550 4950 50  0000 L CNN
F 2 "capacitor:C4" H 3838 4950 50  0001 C CNN
F 3 "" H 3800 5100 50  0000 C CNN
	1    3800 5100
	1    0    0    -1  
$EndComp
$Comp
L CP1 C2
U 1 1 57A75512
P 4200 5100
F 0 "C2" H 4225 5200 50  0000 L CNN
F 1 "220µF" H 3950 4950 50  0000 L CNN
F 2 "capacitor:CPCYL1" H 4200 5100 50  0001 C CNN
F 3 "" H 4200 5100 50  0000 C CNN
	1    4200 5100
	1    0    0    -1  
$EndComp
$Comp
L GND #PWR01
U 1 1 57A75652
P 4200 5850
F 0 "#PWR01" H 4200 5600 50  0001 C CNN
F 1 "GND" H 4200 5700 50  0000 C CNN
F 2 "" H 4200 5850 50  0000 C CNN
F 3 "" H 4200 5850 50  0000 C CNN
	1    4200 5850
	1    0    0    -1  
$EndComp
$Comp
L POT RV1
U 1 1 57A756D3
P 8000 3700
F 0 "RV1" H 8000 3620 50  0000 C CNN
F 1 "10k" H 8000 3700 50  0000 C CNN
F 2 "Potentiometers:Potentiometer_Bourns_3296X_3-8Zoll_Inline_ScrewFront" H 8000 3700 50  0001 C CNN
F 3 "" H 8000 3700 50  0000 C CNN
	1    8000 3700
	0    1    -1   0   
$EndComp
$Comp
L +5V #PWR02
U 1 1 57A77DF9
P 10550 2700
F 0 "#PWR02" H 10550 2550 50  0001 C CNN
F 1 "+5V" H 10550 2840 50  0000 C CNN
F 2 "" H 10550 2700 50  0000 C CNN
F 3 "" H 10550 2700 50  0000 C CNN
	1    10550 2700
	1    0    0    -1  
$EndComp
$Comp
L R R2
U 1 1 57A75A92
P 10550 2950
F 0 "R2" V 10630 2950 50  0000 C CNN
F 1 "2.2K" V 10550 2950 50  0000 C CNN
F 2 "Resistors_ThroughHole:Resistor_Horizontal_RM10mm" V 10480 2950 50  0001 C CNN
F 3 "" H 10550 2950 50  0000 C CNN
	1    10550 2950
	1    0    0    -1  
$EndComp
$Comp
L +5V #PWR03
U 1 1 57A8259C
P 3800 4350
F 0 "#PWR03" H 3800 4200 50  0001 C CNN
F 1 "+5V" H 3800 4490 50  0000 C CNN
F 2 "" H 3800 4350 50  0000 C CNN
F 3 "" H 3800 4350 50  0000 C CNN
	1    3800 4350
	1    0    0    -1  
$EndComp
$Comp
L +5V #PWR04
U 1 1 57A8265A
P 8150 6700
F 0 "#PWR04" H 8150 6550 50  0001 C CNN
F 1 "+5V" H 8150 6840 50  0000 C CNN
F 2 "" H 8150 6700 50  0000 C CNN
F 3 "" H 8150 6700 50  0000 C CNN
	1    8150 6700
	1    0    0    -1  
$EndComp
$Comp
L GND #PWR05
U 1 1 57A82682
P 8150 7700
F 0 "#PWR05" H 8150 7450 50  0001 C CNN
F 1 "GND" H 8150 7550 50  0000 C CNN
F 2 "" H 8150 7700 50  0000 C CNN
F 3 "" H 8150 7700 50  0000 C CNN
	1    8150 7700
	1    0    0    -1  
$EndComp
$Comp
L +5V #PWR06
U 1 1 57A82DEA
P 8000 3450
F 0 "#PWR06" H 8000 3300 50  0001 C CNN
F 1 "+5V" H 8000 3590 50  0000 C CNN
F 2 "" H 8000 3450 50  0000 C CNN
F 3 "" H 8000 3450 50  0000 C CNN
	1    8000 3450
	1    0    0    -1  
$EndComp
$Comp
L CONN_01X07 P2
U 1 1 57A99929
P 5900 2000
F 0 "P2" H 5900 2400 50  0000 C CNN
F 1 "KEYBOARD" V 6000 2000 50  0000 C CNN
F 2 "Pin_Headers:Pin_Header_Straight_1x07" H 5900 2000 50  0001 C CNN
F 3 "" H 5900 2000 50  0000 C CNN
	1    5900 2000
	0    -1   -1   0   
$EndComp
$Comp
L Q_NPN_EBC Q1
U 1 1 57A9A89F
P 11150 4100
F 0 "Q1" H 11450 4150 50  0000 R CNN
F 1 "2N2222" H 11750 4050 50  0000 R CNN
F 2 "TO_SOT_Packages_THT:TO-18_3Pin" H 11350 4200 50  0001 C CNN
F 3 "" H 11150 4100 50  0000 C CNN
	1    11150 4100
	1    0    0    -1  
$EndComp
$Comp
L R R1
U 1 1 57A9A976
P 10600 4100
F 0 "R1" V 10680 4100 50  0000 C CNN
F 1 "1K" V 10600 4100 50  0000 C CNN
F 2 "Resistors_ThroughHole:Resistor_Horizontal_RM10mm" V 10530 4100 50  0001 C CNN
F 3 "" H 10600 4100 50  0000 C CNN
	1    10600 4100
	0    1    1    0   
$EndComp
$Comp
L JQC-3F K1
U 1 1 57A9A9C3
P 11850 3100
F 0 "K1" H 11900 2650 60  0000 C CNN
F 1 "JQC-3F" H 11900 3450 60  0000 C CNN
F 2 "relay:JQC-3F" H 11850 3100 60  0001 C CNN
F 3 "" H 11850 3100 60  0000 C CNN
	1    11850 3100
	1    0    0    -1  
$EndComp
$Comp
L +5V #PWR07
U 1 1 57A9AE53
P 11250 2900
F 0 "#PWR07" H 11250 2750 50  0001 C CNN
F 1 "+5V" H 11250 3040 50  0000 C CNN
F 2 "" H 11250 2900 50  0000 C CNN
F 3 "" H 11250 2900 50  0000 C CNN
	1    11250 2900
	1    0    0    -1  
$EndComp
$Comp
L CONN_01X02 P3
U 1 1 57A9B082
P 12750 4400
F 0 "P3" H 12750 4550 50  0000 C CNN
F 1 "Fluorescent Tube" V 12850 4400 50  0000 C CNN
F 2 "Connect:bornier2" H 12750 4400 50  0001 C CNN
F 3 "" H 12750 4400 50  0000 C CNN
	1    12750 4400
	0    1    1    0   
$EndComp
$Comp
L D D2
U 1 1 57A9B4ED
P 11250 3150
F 0 "D2" H 11250 3250 50  0000 C CNN
F 1 "1N4148" H 11250 3050 50  0000 C CNN
F 2 "Diodes_ThroughHole:Diode_DO-41_SOD81_Horizontal_RM10" H 11250 3150 50  0001 C CNN
F 3 "" H 11250 3150 50  0000 C CNN
	1    11250 3150
	0    1    1    0   
$EndComp
$Comp
L Diode_Bridge D1
U 1 1 57A9B57D
P 4750 6950
F 0 "D1" H 4500 7250 50  0000 C CNN
F 1 "Diode_Bridge" H 5100 6600 50  0000 C CNN
F 2 "by164:BY164" H 4750 6950 50  0001 C CNN
F 3 "" H 4750 6950 50  0000 C CNN
	1    4750 6950
	1    0    0    -1  
$EndComp
$Comp
L CP1 C3
U 1 1 57A9B791
P 5600 7100
F 0 "C3" H 5625 7200 50  0000 L CNN
F 1 "1000µF 25V" H 5625 7000 50  0000 L CNN
F 2 "Capacitors_ThroughHole:C_Axial_D16_L31_P38" H 5600 7100 50  0001 C CNN
F 3 "" H 5600 7100 50  0000 C CNN
	1    5600 7100
	1    0    0    -1  
$EndComp
$Comp
L LM2596-module U1
U 1 1 57A9BC8D
P 6800 7300
F 0 "U1" H 6800 7300 60  0000 C CNN
F 1 "LM2596-module" H 6750 7450 60  0000 C CNN
F 2 "by164:LM2596-module" H 6800 7300 60  0001 C CNN
F 3 "" H 6800 7300 60  0000 C CNN
	1    6800 7300
	1    0    0    -1  
$EndComp
$Comp
L SPEAKER SP1
U 1 1 57AC43DF
P 6350 5900
F 0 "SP1" H 6250 6150 50  0000 C CNN
F 1 "Buzzer" H 6250 5650 50  0000 C CNN
F 2 "Buzzers_Beepers:Buzzer_12x9.5RM7.6" H 6350 5900 50  0001 C CNN
F 3 "" H 6350 5900 50  0000 C CNN
	1    6350 5900
	-1   0    0    1   
$EndComp
$Comp
L GND #PWR08
U 1 1 57AC454D
P 6850 6200
F 0 "#PWR08" H 6850 5950 50  0001 C CNN
F 1 "GND" H 6850 6050 50  0000 C CNN
F 2 "" H 6850 6200 50  0000 C CNN
F 3 "" H 6850 6200 50  0000 C CNN
	1    6850 6200
	1    0    0    -1  
$EndComp
$Comp
L GND #PWR09
U 1 1 5C77B01E
P 11250 4400
F 0 "#PWR09" H 11250 4150 50  0001 C CNN
F 1 "GND" H 11250 4250 50  0000 C CNN
F 2 "" H 11250 4400 50  0000 C CNN
F 3 "" H 11250 4400 50  0000 C CNN
	1    11250 4400
	1    0    0    -1  
$EndComp
$Comp
L GND #PWR010
U 1 1 5C77B0B1
P 10400 3900
F 0 "#PWR010" H 10400 3650 50  0001 C CNN
F 1 "GND" H 10400 3750 50  0000 C CNN
F 2 "" H 10400 3900 50  0000 C CNN
F 3 "" H 10400 3900 50  0000 C CNN
	1    10400 3900
	1    0    0    -1  
$EndComp
$Comp
L GND #PWR011
U 1 1 5C77B515
P 8000 4350
F 0 "#PWR011" H 8000 4100 50  0001 C CNN
F 1 "GND" H 8000 4200 50  0000 C CNN
F 2 "" H 8000 4350 50  0000 C CNN
F 3 "" H 8000 4350 50  0000 C CNN
	1    8000 4350
	1    0    0    -1  
$EndComp
Connection ~ 4200 4650
Wire Wire Line
	3800 4650 4850 4650
Wire Wire Line
	10550 2800 10550 2700
Connection ~ 3800 4650
Wire Wire Line
	4200 4650 4200 4950
Wire Wire Line
	3800 5550 4600 5550
Wire Wire Line
	3800 5250 3800 5550
Wire Wire Line
	3800 4350 3800 4950
Wire Wire Line
	4200 5250 4200 5850
Wire Wire Line
	8150 7350 8150 7700
Wire Wire Line
	8150 6700 8150 7000
Wire Wire Line
	8150 7000 7600 7000
Connection ~ 4200 5550
Wire Wire Line
	10550 3100 10550 3800
Wire Wire Line
	10300 3200 10550 3200
Wire Wire Line
	8000 3450 8000 3550
Wire Wire Line
	8000 3850 8000 4350
Wire Wire Line
	8600 3600 8600 3900
Wire Wire Line
	10400 3000 10300 3000
Wire Wire Line
	10400 3900 10400 3000
Wire Wire Line
	9800 3600 9800 4250
Wire Wire Line
	9700 3600 9700 4200
Wire Wire Line
	9600 3600 9600 4150
Wire Wire Line
	9500 4050 6900 4050
Wire Wire Line
	9500 3600 9500 4050
Wire Wire Line
	7450 3150 6900 3150
Wire Wire Line
	7450 4000 7450 3150
Wire Wire Line
	9000 4000 7450 4000
Wire Wire Line
	9000 3600 9000 4000
Wire Wire Line
	7500 3950 7500 3000
Wire Wire Line
	7500 3000 6900 3000
Wire Wire Line
	8800 3950 7500 3950
Wire Wire Line
	8800 3600 8800 3950
Wire Wire Line
	8700 3700 8700 3600
Wire Wire Line
	8150 3700 8700 3700
Wire Wire Line
	7600 7350 8150 7350
Wire Wire Line
	3400 6550 3400 7650
Wire Wire Line
	3300 7350 3300 7650
Wire Wire Line
	4600 5550 4600 4950
Wire Wire Line
	4600 4950 4850 4950
Wire Wire Line
	6900 3900 7400 3900
Wire Wire Line
	6000 2800 6000 2200
Wire Wire Line
	4850 3450 4700 3450
Wire Wire Line
	4700 3450 4700 2500
Wire Wire Line
	4700 2500 5600 2500
Wire Wire Line
	4850 3600 4600 3600
Wire Wire Line
	4600 3600 4600 2450
Wire Wire Line
	4600 2450 5700 2450
Wire Wire Line
	5800 2400 4500 2400
Wire Wire Line
	4500 2400 4500 3750
Wire Wire Line
	4500 3750 4850 3750
Wire Wire Line
	4400 2350 5900 2350
Wire Wire Line
	4400 2350 4400 3900
Wire Wire Line
	4400 3900 4850 3900
Wire Wire Line
	7050 2750 6100 2750
Wire Wire Line
	6100 2750 6100 2200
Wire Wire Line
	7100 2700 6200 2700
Wire Wire Line
	7000 2800 6000 2800
Wire Wire Line
	6200 2700 6200 2200
Wire Wire Line
	7400 3900 7400 4100
Wire Wire Line
	7400 4100 10450 4100
Wire Wire Line
	10750 4100 10950 4100
Wire Wire Line
	11250 3900 11250 3300
Wire Wire Line
	11250 4400 11250 4300
Wire Wire Line
	11250 3000 11250 2900
Wire Wire Line
	3400 6550 4750 6550
Wire Wire Line
	3300 7350 4750 7350
Wire Wire Line
	5150 6950 5900 6950
Wire Wire Line
	4350 6950 4350 7500
Wire Wire Line
	4350 7500 5600 7500
Wire Wire Line
	5600 7500 5600 7250
Wire Wire Line
	5600 7350 5900 7350
Connection ~ 5600 7350
Connection ~ 5600 6950
Wire Wire Line
	7000 2800 7000 3750
Wire Wire Line
	7050 2750 7050 3600
Wire Wire Line
	7100 2700 7100 3450
Wire Wire Line
	5900 2350 5900 2200
Wire Wire Line
	5800 2200 5800 2400
Wire Wire Line
	5700 2450 5700 2200
Wire Wire Line
	5600 2500 5600 2200
Wire Wire Line
	7000 3750 6900 3750
Wire Wire Line
	7100 3450 6900 3450
Wire Wire Line
	7050 3600 6900 3600
Wire Wire Line
	12600 3150 12800 3150
Wire Wire Line
	12800 3150 12800 4200
Wire Wire Line
	12600 3000 12700 3000
Wire Wire Line
	12700 3000 12700 4200
Wire Wire Line
	6900 3300 7150 3300
Wire Wire Line
	7150 3300 7150 6000
Wire Wire Line
	7150 6000 6650 6000
Wire Wire Line
	6650 5800 6850 5800
Wire Wire Line
	6850 5800 6850 6200
Wire Wire Line
	9600 4150 7400 4150
Wire Wire Line
	7400 4150 7400 4200
Wire Wire Line
	7400 4200 6900 4200
Wire Wire Line
	9700 4200 7450 4200
Wire Wire Line
	7450 4200 7450 4350
Wire Wire Line
	7450 4350 6900 4350
Wire Wire Line
	9800 4250 7500 4250
Wire Wire Line
	7500 4250 7500 4500
Wire Wire Line
	7500 4500 6900 4500
Wire Wire Line
	8900 3600 8900 4350
Wire Wire Line
	8900 3850 8500 3850
Wire Wire Line
	8500 3850 8500 3600
$Comp
L GND #PWR012
U 1 1 57A77BCD
P 8900 4350
F 0 "#PWR012" H 8900 4100 50  0001 C CNN
F 1 "GND" H 8900 4200 50  0000 C CNN
F 2 "" H 8900 4350 50  0000 C CNN
F 3 "" H 8900 4350 50  0000 C CNN
	1    8900 4350
	1    0    0    -1  
$EndComp
Connection ~ 8900 3850
$Comp
L +5V #PWR013
U 1 1 5C77B968
P 8250 3500
F 0 "#PWR013" H 8250 3350 50  0001 C CNN
F 1 "+5V" H 8250 3640 50  0000 C CNN
F 2 "" H 8250 3500 50  0000 C CNN
F 3 "" H 8250 3500 50  0000 C CNN
	1    8250 3500
	1    0    0    -1  
$EndComp
Wire Wire Line
	8600 3900 8250 3900
Wire Wire Line
	8250 3900 8250 3500
$Comp
L IRM-XX-XX U3
U 1 1 5C798D4F
P 10800 7100
F 0 "U3" H 10800 7350 60  0000 C CNN
F 1 "IRM-03-5V" H 10550 6850 60  0000 L CNN
F 2 "" H 10800 7100 60  0000 C CNN
F 3 "" H 10800 7100 60  0000 C CNN
	1    10800 7100
	1    0    0    -1  
$EndComp
Text Notes 9050 7100 0    60   ~ 12
OR
Text Notes 9850 7150 0    60   ~ 0
230V
$Comp
L GND #PWR014
U 1 1 5C798FC9
P 11650 7400
F 0 "#PWR014" H 11650 7150 50  0001 C CNN
F 1 "GND" H 11650 7250 50  0000 C CNN
F 2 "" H 11650 7400 50  0000 C CNN
F 3 "" H 11650 7400 50  0000 C CNN
	1    11650 7400
	1    0    0    -1  
$EndComp
Wire Wire Line
	11650 7400 11650 7200
Wire Wire Line
	11650 7200 11450 7200
$Comp
L +5V #PWR015
U 1 1 5C7990CA
P 11650 6800
F 0 "#PWR015" H 11650 6650 50  0001 C CNN
F 1 "+5V" H 11650 6940 50  0000 C CNN
F 2 "" H 11650 6800 50  0000 C CNN
F 3 "" H 11650 6800 50  0000 C CNN
	1    11650 6800
	1    0    0    -1  
$EndComp
Wire Wire Line
	11650 7000 11650 6800
Wire Wire Line
	11450 7000 11650 7000
Wire Wire Line
	10550 3800 9900 3800
Wire Wire Line
	9900 3800 9900 3600
Connection ~ 10550 3200
Wire Wire Line
	10000 3600 10000 3700
Wire Wire Line
	10000 3700 10400 3700
Connection ~ 10400 3700
$Comp
L DISPLAY-1602 DS1
U 1 1 5C7BD74A
P 9250 3100
F 0 "DS1" H 8450 3500 50  0000 C CNN
F 1 "DISPLAY-1602" H 9950 3500 50  0000 C CNN
F 2 "WC1602A" H 9250 3050 50  0000 C CIN
F 3 "" H 9250 3100 50  0000 C CNN
	1    9250 3100
	1    0    0    -1  
$EndComp
$EndSCHEMATC
